{
    "labels": [
        "January",
        "February",
        "March"
    ],
    "datasets": [
        {
            "label": "MyData",
            "backgroundColor": "#f87979",
            "data": [
                40,
                20,
                12
            ]
        }
    ]
}